Division,WeightClassKg,Place,Name,Team,BodyweightKg,Best3SquatKg,Best3BenchKg,Best3DeadliftKg,TotalKg,Equipment,Event,Sex
Boys,51.71,1,Nico Lopez,Belton,51.03,124.74,65.77,147.42,337.93,Single-ply,SBD,M
Boys,55.79,2,Aaron Terry,College Station A&M Cons,51.94,106.59,56.7,124.74,288.03,Single-ply,SBD,M
Boys,51.71,3,Tyerone Washington,Waco University,49.08,79.38,34.02,90.72,204.12,Single-ply,SBD,M
Boys,55.79,1,Forrest Warren,Georgetown,54.66,136.08,68.04,140.61,344.73,Single-ply,SBD,M
Boys,55.79,2,Greg Palmour,Belton,55.29,113.4,81.65,129.27,324.32,Single-ply,SBD,M
Boys,55.79,3,Sam Vega,Copperas Cove,55.52,97.52,97.52,115.67,310.71,Single-ply,SBD,M
Boys,59.87,1,Zerrick Merchant,College Station A&M Cons,57.97,161.03,92.99,181.44,435.45,Single-ply,SBD,M
Boys,59.87,2,Rolando Salazar,Belton,59.24,156.49,86.18,176.9,419.57,Single-ply,SBD,M
Boys,59.87,3,Zac Bryant,Lampasas,59.47,145.15,83.91,158.76,387.82,Single-ply,SBD,M
Boys,59.87,4,Dominic Mathews,Killeen Shoemaker,59.28,122.47,72.57,158.76,353.8,Single-ply,SBD,M
Boys,59.87,5,Terrill David,Copperas Cove,58.88,131.54,68.04,142.88,342.46,Single-ply,SBD,M
Boys,67.13,6,Darrell Porter,Killeen Shoemaker,59.96,124.74,72.57,138.35,335.66,Single-ply,SBD,M
Boys,59.87,7,Deanthony Graham,Copperas Cove,56.7,117.93,61.23,124.74,303.91,Single-ply,SBD,M
Boys,59.87,8,Esidro Arce,Lampasas,56.97,108.86,68.04,117.93,294.84,Single-ply,SBD,M
Boys,59.87,9,Justin Mondrik,Temple,58.79,88.45,56.7,117.93,263.08,Single-ply,SBD,M
Boys,59.87,DQ,Pathion Collins,Belton,59.87,,,,,Single-ply,SBD,M
Boys,67.13,1,Kevin Atherton,Belton,65.32,190.51,129.27,199.58,519.36,Single-ply,SBD,M
Boys,67.13,2,Justin Maniqualt,Lampasas,67.13,167.83,102.06,190.51,460.4,Single-ply,SBD,M
Boys,67.13,3,Felix Morales,Killeen Shoemaker,64.59,158.76,90.72,163.29,412.77,Single-ply,SBD,M
Boys,67.13,4,Riley Martinez,College Station A&M Cons,65.95,165.56,86.18,161.03,412.77,Single-ply,SBD,M
Boys,74.84,5,Shameal Baskerville,Copperas Cove,67.36,142.88,72.57,167.83,383.29,Single-ply,SBD,M
Boys,67.13,6,Robert Martinez,Belton,62.46,136.08,74.84,170.1,381.02,Single-ply,SBD,M
Boys,67.13,7,Dylan Elza,Belton,64.77,140.61,86.18,154.22,381.02,Single-ply,SBD,M
Boys,67.13,8,Raul Nava,Georgetown,67.13,133.81,92.99,154.22,381.02,Single-ply,SBD,M
Boys,67.13,9,Antwan Coleman,Waco University,63.46,151.95,79.38,136.08,367.41,Single-ply,SBD,M
Boys,67.13,10,Richard Rooks,Killeen Shoemaker,64.73,124.74,95.25,140.61,360.61,Single-ply,SBD,M
Boys,67.13,11,Jeffery Sanders,Temple,63,136.08,79.38,138.35,353.8,Single-ply,SBD,M
Boys,67.13,12,Ryan Arnold,Georgetown,62.51,136.08,72.57,136.08,344.73,Single-ply,SBD,M
Boys,67.13,13,Vondale Purvis,Copperas Cove,63.78,117.93,79.38,136.08,333.39,Single-ply,SBD,M
Boys,67.13,14,Elijah Torres,Waco,65.05,111.13,74.84,142.88,328.85,Single-ply,SBD,M
Boys,67.13,15,Derrias Bradley,Temple,62.96,136.08,65.77,108.86,310.71,Single-ply,SBD,M
Boys,67.13,16,Robbie Seybold,Copperas Cove,66.04,108.86,70.31,131.54,310.71,Single-ply,SBD,M
Boys,67.13,17,Adam Smith,Copperas Cove,66.59,104.33,61.23,129.27,294.84,Single-ply,SBD,M
Boys,67.13,DQ,Robert Bueno,Georgetown,67.13,,,,,Single-ply,SBD,M
Boys,67.13,DQ,Nico Gutierrez,Rogers,67.13,,,,,Single-ply,SBD,M
Boys,67.13,DQ,John Lawless,Rogers,67.13,,,,,Single-ply,SBD,M
Boys,67.13,DQ,Tom Lawless,Rogers,67.13,,,,,Single-ply,SBD,M
Boys,67.13,DQ,Tyson End,Belton,61.69,117.93,,136.08,,Single-ply,SBD,M
Boys,74.84,1,Tywon Thomas,Belton,73.39,181.44,106.59,204.12,492.15,Single-ply,SBD,M
Boys,74.84,2,Brentlee Allen,Waco,71.94,156.49,111.13,188.24,455.86,Single-ply,SBD,M
Boys,74.84,3,Jamal Sarhani,Copperas Cove,73.62,167.83,99.79,188.24,455.86,Single-ply,SBD,M
Boys,74.84,4,Eduardo Rodriguez,Temple,72.85,161.03,120.2,172.37,453.59,Single-ply,SBD,M
Boys,82.1,5,Keimon McDowell,Waco,74.93,170.1,90.72,188.24,449.06,Single-ply,SBD,M
Boys,74.84,6,Darius Davis,Georgetown,70.67,158.76,111.13,174.63,444.52,Single-ply,SBD,M
Boys,74.84,7,Taylor Sachs,Georgetown,69.13,167.83,99.79,174.63,442.25,Single-ply,SBD,M
Boys,74.84,8,Naaman Young,Copperas Cove,74.57,142.88,122.47,170.1,435.45,Single-ply,SBD,M
Boys,74.84,9,Keegan Barber,Temple,70.76,147.42,95.25,170.1,412.77,Single-ply,SBD,M
Boys,74.84,10,Julian DeLaCruz,Lampasas,71.49,165.56,92.99,149.69,408.23,Single-ply,SBD,M
Boys,74.84,11,Sheldon Brown,Killeen Shoemaker,73.26,142.88,95.25,156.49,394.63,Single-ply,SBD,M
Boys,74.84,12,JW Epley,Belton,70.67,120.2,90.72,167.83,378.75,Single-ply,SBD,M
Boys,74.84,13,Brock Drummond,Georgetown,71.21,142.88,92.99,140.61,376.48,Single-ply,SBD,M
Boys,74.84,14,William Skoch,Copperas Cove,73.89,138.35,86.18,149.69,374.21,Single-ply,SBD,M
Boys,74.84,15,Otis Hudson,Killeen Shoemaker,71.67,136.08,74.84,161.03,371.95,Single-ply,SBD,M
Boys,74.84,16,Isaac Carrillo,Waco University,72.85,117.93,108.86,142.88,369.68,Single-ply,SBD,M
Boys,74.84,17,Brandon Jones,Copperas Cove,73.21,131.54,83.91,147.42,362.87,Single-ply,SBD,M
Boys,74.84,18,Taylor Weems,Rogers,72.85,136.08,79.38,145.15,360.61,Single-ply,SBD,M
Boys,74.84,19,Darian Parker,Killeen Shoemaker,69.4,129.27,83.91,142.88,356.07,Single-ply,SBD,M
Boys,74.84,20,Dalton Randolph,Temple,68.13,115.67,74.84,161.03,351.53,Single-ply,SBD,M
Boys,74.84,21,Jordan Smith,Waco University,73.21,124.74,79.38,142.88,347,Single-ply,SBD,M
Boys,74.84,22,Ashton Jackson,Temple,67.95,136.08,61.23,136.08,333.39,Single-ply,SBD,M
Boys,74.84,23,Rafael George,Copperas Cove,68.04,120.2,79.38,133.81,333.39,Single-ply,SBD,M
Boys,74.84,24,Ja'Darian Wright,Waco University,67.49,117.93,79.38,129.27,326.59,Single-ply,SBD,M
Boys,74.84,25,Kyle Morgan,Copperas Cove,71.21,108.86,72.57,140.61,322.05,Single-ply,SBD,M
Boys,74.84,26,Gabe Jackson,Copperas Cove,73.94,95.25,90.72,136.08,322.05,Single-ply,SBD,M
Boys,74.84,27,Mario Perez,Copperas Cove,72.3,111.13,68.04,136.08,315.25,Single-ply,SBD,M
Boys,74.84,28,Connor Dierienger,Georgetown,72.48,124.74,77.11,113.4,315.25,Single-ply,SBD,M
Boys,74.84,29,Nick Deprisco,Copperas Cove,69.22,102.06,63.5,145.15,310.71,Single-ply,SBD,M
Boys,74.84,30,Larry Overton,Copperas Cove,71.26,106.59,79.38,124.74,310.71,Single-ply,SBD,M
Boys,74.84,31,Chris Dyches,Copperas Cove,70.67,108.86,54.43,124.74,288.03,Single-ply,SBD,M
Boys,74.84,32,Mack Monsen,Temple,71.89,108.86,52.16,124.74,285.76,Single-ply,SBD,M
Boys,74.84,DQ,Keaton Kelarek,Rogers,74.84,,,,,Single-ply,SBD,M
Boys,74.84,DQ,Cedrick McCan,College Station A&M Cons,74.84,,,,,Single-ply,SBD,M
Boys,74.84,DQ,Kenny Shuler,Belton,73.98,142.88,,181.44,,Single-ply,SBD,M
Boys,74.84,DQ,Julian Doubleday,Copperas Cove,69.35,,83.91,127.01,,Single-ply,SBD,M
Boys,82.1,DQ,Josh Kuehne,Lampasas,74.93,,92.99,158.76,,Single-ply,SBD,M
Boys,74.84,DQ,Blaine White,Lampasas,73.39,,102.06,,,Single-ply,SBD,M
Boys,74.84,DQ,John Cole Vann,Lampasas,72.67,,68.04,,,Single-ply,SBD,M
Boys,89.81,1,Chris Ceazar,College Station A&M Cons,82.24,197.31,151.95,213.19,562.45,Single-ply,SBD,M
Boys,82.1,2,Edward Hall,Lampasas,81.56,204.12,131.54,192.78,528.44,Single-ply,SBD,M
Boys,82.1,3,Devin Patterson,Belton,80.69,163.29,111.13,204.12,478.54,Single-ply,SBD,M
Boys,82.1,4,Derrious Burns,Waco University,78.93,181.44,113.4,167.83,462.66,Single-ply,SBD,M
Boys,82.1,5,Trai Ewing,Killeen Shoemaker,76.93,163.29,117.93,174.63,455.86,Single-ply,SBD,M
Boys,82.1,6,Ian Reeves,Georgetown,82.1,165.56,92.99,185.97,444.52,Single-ply,SBD,M
Boys,82.1,7,Chase Woods,Copperas Cove,81.01,163.29,106.59,170.1,439.98,Single-ply,SBD,M
Boys,82.1,8,Justin Maldonado,Lampasas,77.84,151.95,88.45,158.76,399.16,Single-ply,SBD,M
Boys,82.1,9,Nathan Tapley,Georgetown,75.57,145.15,95.25,154.22,394.63,Single-ply,SBD,M
Boys,82.1,10,Johnny Jefferson,Killeen Shoemaker,76.38,136.08,90.72,165.56,392.36,Single-ply,SBD,M
Boys,82.1,11,Devon Johnson,Copperas Cove,80.2,158.76,77.11,151.95,387.82,Single-ply,SBD,M
Boys,82.1,12,Eddie Meniweather,Copperas Cove,80.74,142.88,95.25,149.69,387.82,Single-ply,SBD,M
Boys,82.1,13,Matt Farmer,Copperas Cove,77.2,115.67,92.99,176.9,385.55,Single-ply,SBD,M
Boys,82.1,14,Miguel Guerra,Waco University,78.93,142.88,83.91,158.76,385.55,Single-ply,SBD,M
Boys,82.1,DQ,Chris Bell,Waco University,82.1,,,,,Single-ply,SBD,M
Boys,89.81,1,David Levias,College Station A&M Cons,86.32,185.97,120.2,192.78,498.95,Single-ply,SBD,M
Boys,89.81,2,Taylor Lackey,Temple,85,197.31,117.93,181.44,496.68,Single-ply,SBD,M
Boys,89.81,3,Patrick Rieves,Temple,87.45,174.63,120.2,179.17,474,Single-ply,SBD,M
Boys,89.81,4,Donavan Williams,Belton,83.82,161.03,102.06,204.12,467.2,Single-ply,SBD,M
Boys,89.81,5,Steven McKinney,Lampasas,87.45,167.83,106.59,181.44,455.86,Single-ply,SBD,M
Boys,89.81,6,Seth Culp,Temple,83.64,149.69,99.79,174.63,424.11,Single-ply,SBD,M
Boys,89.81,7,Evan Walker,Temple,85.28,165.56,99.79,158.76,424.11,Single-ply,SBD,M
Boys,89.81,8,Ej Waggy,Rogers,89.18,156.49,99.79,165.56,421.84,Single-ply,SBD,M
Boys,89.81,9,Josef Fowler,Rogers,88.09,163.29,95.25,161.03,419.57,Single-ply,SBD,M
Boys,89.81,10,Broderick James,Belton,84.14,154.22,92.99,147.42,394.63,Single-ply,SBD,M
Boys,89.81,11,Quinn Breslin,Georgetown,87,138.35,104.33,140.61,383.29,Single-ply,SBD,M
Boys,89.81,12,JaMarcus Rice,Waco University,85.73,136.08,92.99,127.01,356.07,Single-ply,SBD,M
Boys,89.81,13,Andy Strickland,Waco University,82.51,102.06,81.65,124.74,308.44,Single-ply,SBD,M
Boys,89.81,DQ,Jabriel Robinson,Waco University,89.81,,,,,Single-ply,SBD,M
Boys,89.81,DQ,Tristen Eche,Waco,89.81,,,,,Single-ply,SBD,M
Boys,99.79,1,Brandon Harding,Belton,96.39,190.51,129.27,206.38,526.17,Single-ply,SBD,M
Boys,109.77,2,David Jennings,Copperas Cove,100.02,190.51,111.13,181.44,483.08,Single-ply,SBD,M
Boys,99.79,3,Bryan Morgan,Copperas Cove,98.2,190.51,122.47,154.22,467.2,Single-ply,SBD,M
Boys,99.79,4,Chauncy Cuffie,Lampasas,95.53,165.56,113.4,170.1,449.06,Single-ply,SBD,M
Boys,99.79,5,Josh Valles,Lampasas,91.81,188.24,97.52,161.03,446.79,Single-ply,SBD,M
Boys,99.79,6,Brandon Reliford,Waco,95.8,165.56,88.45,183.7,437.72,Single-ply,SBD,M
Boys,99.79,7,Jeff Nichol,Rogers,97.7,147.42,90.72,181.44,419.57,Single-ply,SBD,M
Boys,99.79,8,Stefan White,Waco,91.9,161.03,88.45,165.56,415.04,Single-ply,SBD,M
Boys,99.79,9,Josh Heine,Georgetown,93.98,154.22,88.45,165.56,408.23,Single-ply,SBD,M
Boys,99.79,10,Tyler Agnello,Copperas Cove,93.85,136.08,77.11,145.15,358.34,Single-ply,SBD,M
Boys,99.79,11,Bryan Boatright,Georgetown,93.44,113.4,68.04,136.08,317.51,Single-ply,SBD,M
Boys,99.79,DQ,Ben Boatright,Georgetown,99.79,,,,,Single-ply,SBD,M
Boys,99.79,DQ,Clinton Banks,College Station A&M Cons,99.79,,,,,Single-ply,SBD,M
Boys,109.77,1,Ricky Alvarez,Belton,106.68,265.35,163.29,226.8,655.44,Single-ply,SBD,M
Boys,109.77,2,Diomonic Crawford,Killeen Shoemaker,102.33,226.8,142.88,226.8,596.47,Single-ply,SBD,M
Boys,109.77,3,Joseph Stephens,Waco,106.5,226.8,124.74,201.85,553.38,Single-ply,SBD,M
Boys,109.77,4,Dillon Smith,College Station A&M Cons,108.27,229.06,97.52,215.46,542.04,Single-ply,SBD,M
Boys,109.77,5,Eric Alvarez,Georgetown,104.51,181.44,129.27,226.8,537.51,Single-ply,SBD,M
Boys,109.77,6,Patrick Tolbert,Belton,107.27,188.24,129.27,215.46,532.97,Single-ply,SBD,M
Boys,124.74,7,Ryan Miller #6,Copperas Cove,109.95,199.58,147.42,181.44,528.44,Single-ply,SBD,M
Boys,109.77,8,Ethan Kennedy,Georgetown,103.51,174.63,95.25,197.31,467.2,Single-ply,SBD,M
Boys,109.77,9,Byron Reliford,Waco,109.68,199.58,99.79,165.56,464.93,Single-ply,SBD,M
Boys,109.77,10,Darious Alley,Waco University,105.14,163.29,115.67,176.9,455.86,Single-ply,SBD,M
Boys,109.77,11,Josh Hendrix,Copperas Cove,100.7,147.42,115.67,167.83,430.91,Single-ply,SBD,M
Boys,109.77,12,Lorenzo Martinez,Georgetown,104.05,183.7,95.25,136.08,415.04,Single-ply,SBD,M
Boys,109.77,13,Daquan Bratcher,Copperas Cove,100.83,136.08,113.4,161.03,410.5,Single-ply,SBD,M
Boys,109.77,14,Tyler Espy,Georgetown,105.78,154.22,92.99,149.69,396.89,Single-ply,SBD,M
Boys,109.77,15,Korreal London,Waco University,104.87,151.95,83.91,136.08,371.95,Single-ply,SBD,M
Boys,109.77,16,David Moore #6,Copperas Cove,105.28,136.08,86.18,147.42,369.68,Single-ply,SBD,M
Boys,109.77,17,Noah Tresselt,Belton,103.83,133.81,81.65,127.01,342.46,Single-ply,SBD,M
Boys,109.77,18,Ryans Dollens,Temple,102.87,102.06,74.84,129.27,306.17,Single-ply,SBD,M
Boys,109.77,19,Alexis Felix,Temple,108.86,124.74,72.57,106.59,303.91,Single-ply,SBD,M
Boys,109.77,DQ,Michael Salazar,Georgetown,109.77,,,,,Single-ply,SBD,M
Boys,109.77,DQ,Jake Terry,Lampasas,103.92,151.95,,151.95,,Single-ply,SBD,M
Boys,109.77,DQ,Taylor Harris,Belton,107.64,145.15,,158.76,,Single-ply,SBD,M
Boys,124.74,1,Jj Bynum,College Station A&M Cons,120.02,258.55,142.88,226.8,628.23,Single-ply,SBD,M
Boys,124.74,2,Quincey Sims,Waco,118.3,226.8,124.74,269.89,621.42,Single-ply,SBD,M
Boys,124.74,3,Stephen Honeywood,Belton,117.75,242.67,142.88,222.26,607.81,Single-ply,SBD,M
Boys,124.74,4,Caden Walker,College Station A&M Cons,114.76,206.38,170.1,222.26,598.74,Single-ply,SBD,M
Boys,124.74,5,David Koschel,Georgetown,123.83,213.19,138.35,181.44,532.97,Single-ply,SBD,M
Boys,124.74,6,Troy Healy,Temple,121.83,215.46,131.54,181.44,528.44,Single-ply,SBD,M
Boys,124.74,7,Ryan Zdroik,Rogers,112.31,197.31,115.67,188.24,501.22,Single-ply,SBD,M
Boys,124.74,8,Andrew Billings,Waco,120.29,185.97,115.67,181.44,483.08,Single-ply,SBD,M
Boys,124.74,9,Cirino Rios,Temple,116.3,181.44,77.11,181.44,439.98,Single-ply,SBD,M
Boys,124.74,10,Tyler Gilbert,Copperas Cove,118.93,174.63,97.52,167.83,439.98,Single-ply,SBD,M
Boys,124.74,11,Tyrone Newson,Killeen Shoemaker,124.47,136.08,106.59,149.69,392.36,Single-ply,SBD,M
Boys,124.74,12,Marshall Webster,Temple,124.47,129.27,90.72,158.76,378.75,Single-ply,SBD,M
Boys,124.74,13,Divad Brazell,Temple,118.84,136.08,65.77,142.88,344.73,Single-ply,SBD,M
Boys,124.74,14,Lincoln Marshall,Copperas Cove,113.26,131.54,74.84,117.93,324.32,Single-ply,SBD,M
Boys,124.74,DQ,Easton Evans,Waco University,124.74,,,,,Single-ply,SBD,M
Boys,124.74,DQ,Julius Lujan,Waco University,124.74,,,,,Single-ply,SBD,M
Boys,124.74,DQ,David Cockrell,Lampasas,112.49,161.03,113.4,,,Single-ply,SBD,M
Boys,124.74+,1,Daniel Bass,Temple,125.83,263.08,149.69,222.26,635.03,Single-ply,SBD,M
Boys,124.74+,2,Landon Boffman,Waco,159.66,235.87,133.81,208.65,578.33,Single-ply,SBD,M
Boys,124.74+,3,Wyatt Smith,College Station A&M Cons,126.96,231.33,151.95,185.97,569.26,Single-ply,SBD,M
Boys,124.74+,4,Zach Villanueva,Belton,140.21,181.44,108.86,158.76,449.06,Single-ply,SBD,M
Boys,124.74+,5,Timbritt Barnes,Copperas Cove,135.9,136.08,97.52,174.63,408.23,Single-ply,SBD,M
