Division,WeightClassKg,Place,Name,Team,BodyweightKg,Best3SquatKg,Best3BenchKg,Best3DeadliftKg,TotalKg,Equipment,Event,Sex
Boys,51.71,1,Damian Tamez,Fort Worth Boswell,48.13,108.86,63.5,140.61,312.98,Single-ply,SBD,M
Boys,51.71,2,Dakota Hudson,Azle,48.63,120.2,65.77,113.4,299.37,Single-ply,SBD,M
Boys,51.71,3,CJ Jones,Fort Worth Boswell,51.62,99.79,47.63,99.79,247.21,Single-ply,SBD,M
Boys,51.71,4,Kyle Hendrix,Weatherford,51.39,102.06,,,102.06,Single-ply,S,M
Boys,55.79,1,Arnold Delgidillo,White Settlement Brewer,54.11,136.08,86.18,149.69,371.95,Single-ply,SBD,M
Boys,59.87,2,Felipe Hernández #5,Saginaw,55.97,133.81,77.11,140.61,351.53,Single-ply,SBD,M
Boys,55.79,3,Chris Delgado,Fort Worth Boswell,55.07,133.81,63.5,136.08,333.39,Single-ply,SBD,M
Boys,55.79,4,Christian Youngblood,Aledo,55.66,111.13,68.04,142.88,322.05,Single-ply,SBD,M
Boys,55.79,5,Nick Roark-Smith,Fort Worth Chisholm Trail,54.61,127.01,47.63,127.01,301.64,Single-ply,SBD,M
Boys,59.87,6,Isaac Gonzalez,Weatherford,55.93,117.93,61.23,122.47,301.64,Single-ply,SBD,M
Boys,55.79,7,Caleb Salazar,Fort Worth Boswell,55.07,111.13,70.31,113.4,294.84,Single-ply,SBD,M
Boys,55.79,8,Hayden Wright,Aledo,55.29,90.72,49.9,95.25,235.87,Single-ply,SBD,M
Boys,59.87,1,DeLonte Christmas,Fort Worth Boswell,57.88,140.61,95.25,161.03,396.89,Single-ply,SBD,M
Boys,59.87,2,Zach Bodine,Weatherford,59.24,142.88,92.99,147.42,383.29,Single-ply,SBD,M
Boys,59.87,3,Nick Thomas #4,Weatherford,59.33,147.42,68.04,158.76,374.21,Single-ply,SBD,M
Boys,59.87,4,Nick Marquez,Fort Worth Chisholm Trail,59.38,136.08,63.5,138.35,337.93,Single-ply,SBD,M
Boys,59.87,5,Austin Chenault,Springtown,59.06,136.08,63.5,129.27,328.85,Single-ply,SBD,M
Boys,59.87,6,Adam Shaw,Saginaw,59.19,106.59,61.23,106.59,274.42,Single-ply,SBD,M
Boys,67.13,1,Treveon Kindle,Fort Worth Boswell,65.14,204.12,113.4,208.65,526.17,Single-ply,SBD,M
Boys,67.13,2,Demetrius Hutcherson,Azle,65.23,195.04,88.45,185.97,469.47,Single-ply,SBD,M
Boys,67.13,3,Michael Jordan,Aledo,65.36,181.44,104.33,165.56,451.32,Single-ply,SBD,M
Boys,67.13,4,Alex Medina,Springtown,65.18,170.1,83.91,163.29,417.3,Single-ply,SBD,M
Boys,67.13,5,Anthony Cuevas,Saginaw,66.63,149.69,117.93,149.69,417.3,Single-ply,SBD,M
Boys,67.13,6,Chase Warren,Weatherford,64.68,154.22,88.45,165.56,408.23,Single-ply,SBD,M
Boys,67.13,7,Jackson Walker,Springtown,66.81,147.42,81.65,165.56,394.63,Single-ply,SBD,M
Boys,67.13,8,Michael Frantzen,Fort Worth Chisholm Trail,65.68,151.95,81.65,158.76,392.36,Single-ply,SBD,M
Boys,67.13,9,Iza Villareal,Granbury,61.87,117.93,83.91,136.08,337.93,Single-ply,SBD,M
Boys,67.13,DQ,Eugene Geis,Granbury,60.6,,,,,Single-ply,SBD,M
Boys,67.13,DQ,Kenneth McCleveland,Fort Worth Chisholm Trail,67.04,,,,,Single-ply,SBD,M
Boys,74.84,1,Gage McQuade,Fort Worth Boswell,74.39,226.8,124.74,185.97,537.51,Single-ply,SBD,M
Boys,74.84,2,Chase Smith,Azle,73.84,199.58,102.06,195.04,496.68,Single-ply,SBD,M
Boys,74.84,3,Kevin Perotti,White Settlement Brewer,74.03,185.97,108.86,192.78,487.61,Single-ply,SBD,M
Boys,74.84,4,Travis Donahue,Granbury,74.48,165.56,136.08,183.7,485.34,Single-ply,SBD,M
Boys,74.84,5,Draven Pointer,Weatherford,73.53,181.44,115.67,185.97,483.08,Single-ply,SBD,M
Boys,74.84,6,Josh Williams,Azle,73.71,185.97,102.06,195.04,483.08,Single-ply,SBD,M
Boys,74.84,7,Jarrod Nelson,Springtown,74.3,190.51,106.59,185.97,483.08,Single-ply,SBD,M
Boys,74.84,8,Gabriel Morales,Saginaw,72.76,183.7,97.52,174.63,455.86,Single-ply,SBD,M
Boys,74.84,9,Lane Brown,Fort Worth Chisholm Trail,74.53,158.76,90.72,192.78,442.25,Single-ply,SBD,M
Boys,74.84,10,Trent Melton,Granbury,69.49,185.97,88.45,158.76,433.18,Single-ply,SBD,M
Boys,74.84,11,Brennan Barrs,White Settlement Brewer,73.44,131.54,90.72,161.03,383.29,Single-ply,SBD,M
Boys,74.84,12,Carson McCone,Aledo,71.71,131.54,72.57,149.69,353.8,Single-ply,SBD,M
Boys,74.84,13,Jett Weatherly,Aledo,70.85,102.06,61.23,104.33,267.62,Single-ply,SBD,M
Boys,89.81,1,Daniel Valdez,Granbury,82.24,226.8,117.93,195.04,539.77,Single-ply,SBD,M
Boys,82.1,2,Robbie Carper,Weatherford,77.66,208.65,124.74,192.78,526.17,Single-ply,SBD,M
Boys,82.1,3,Richardo Camas,Weatherford,79.92,199.58,129.27,192.78,521.63,Single-ply,SBD,M
Boys,82.1,4,Jacob Moutray,Azle,81.24,217.72,117.93,181.44,517.1,Single-ply,SBD,M
Boys,82.1,5,Chris Hammonds,Saginaw,78.74,201.85,113.4,197.31,512.56,Single-ply,SBD,M
Boys,82.1,6,Damian Sprayberry,Springtown,82.1,192.78,111.13,201.85,505.76,Single-ply,SBD,M
Boys,82.1,7,TK Powell,Fort Worth Chisholm Trail,80.69,183.7,120.2,183.7,487.61,Single-ply,SBD,M
Boys,82.1,8,Dusty Schauer,Weatherford,75.84,183.7,111.13,190.51,485.34,Single-ply,SBD,M
Boys,82.1,9,Jesse Valdez,Granbury,76.7,195.04,115.67,172.37,483.08,Single-ply,SBD,M
Boys,82.1,DQ,Damian Hernandez,White Settlement Brewer,81.65,,,,,Single-ply,SBD,M
Boys,89.81,1,Colton Humphrey,Fort Worth Boswell,83.91,206.38,120.2,201.85,528.44,Single-ply,SBD,M
Boys,89.81,2,Tanner Dennis,Aledo,89.45,183.7,127.01,183.7,494.42,Single-ply,SBD,M
Boys,89.81,3,Matt Brunk,Saginaw,89.63,174.63,120.2,183.7,478.54,Single-ply,SBD,M
Boys,99.79,4,Jalen Pate,Fort Worth Chisholm Trail,90.04,179.17,92.99,192.78,464.93,Single-ply,SBD,M
Boys,89.81,5,Daniel Kwaw,Aledo,83.19,163.29,102.06,190.51,455.86,Single-ply,SBD,M
Boys,89.81,6,Ryland Campbell,Aledo,84.55,149.69,95.25,142.88,387.82,Single-ply,SBD,M
Boys,89.81,DQ,Andrew Oxford,Springtown,89.81,,,,,Single-ply,SBD,M
Boys,89.81,DQ,Benji Perez,White Settlement Brewer,86.64,,,,,Single-ply,SBD,M
Boys,89.81,DQ,Robbie Williams,White Settlement Brewer,89.81,,,,,Single-ply,SBD,M
Boys,99.79,1,Stephen Evans,White Settlement Brewer,98.47,240.4,127.01,201.85,569.26,Single-ply,SBD,M
Boys,99.79,2,Nathan Badillo,Saginaw,98.07,229.06,127.01,195.04,551.11,Single-ply,SBD,M
Boys,99.79,3,Cody Trahan,Fort Worth Boswell,92.12,195.04,142.88,195.04,532.97,Single-ply,SBD,M
Boys,99.79,4,Payton Gilmore,Granbury,95.98,199.58,113.4,192.78,505.76,Single-ply,SBD,M
Boys,99.79,5,Tyler Shemberger,Azle,96.8,192.78,115.67,192.78,501.22,Single-ply,SBD,M
Boys,99.79,6,Alfred Kankam,Saginaw,98.11,174.63,106.59,170.1,451.32,Single-ply,SBD,M
Boys,99.79,7,Tyler White,Springtown,90.49,151.95,97.52,151.95,401.43,Single-ply,SBD,M
Boys,99.79,8,Cale Hatfield,Saginaw,98.29,201.85,,,201.85,Single-ply,S,M
Boys,99.79,9,Tristian Raymond,Weatherford,97.66,195.04,,,195.04,Single-ply,S,M
Boys,109.77,1,Landon Todd,Azle,108.95,224.53,147.42,210.92,582.87,Single-ply,SBD,M
Boys,109.77,2,Logan Todd,Azle,108.54,224.53,133.81,210.92,569.26,Single-ply,SBD,M
Boys,124.74,3,Justin Scarbro,Azle,110,229.06,140.61,195.04,564.72,Single-ply,SBD,M
Boys,109.77,4,Antonio Cansino,Weatherford,108.77,233.6,108.86,201.85,544.31,Single-ply,SBD,M
Boys,109.77,5,Roy Buchanan,Granbury,105.55,215.46,122.47,188.24,526.17,Single-ply,SBD,M
Boys,109.77,6,Martine Medina,Springtown,101.47,201.85,108.86,208.65,519.36,Single-ply,SBD,M
Boys,109.77,7,Kade Griffin,Azle,106.96,215.46,122.47,181.44,519.36,Single-ply,SBD,M
Boys,109.77,8,Tristen Gilmore,Granbury,102.6,195.04,111.13,192.78,498.95,Single-ply,SBD,M
Boys,109.77,9,Nathan Hanna,Saginaw,106.05,167.83,131.54,181.44,480.81,Single-ply,SBD,M
Boys,109.77,10,Tye Lee,Fort Worth Chisholm Trail,107.09,195.04,97.52,181.44,474,Single-ply,SBD,M
Boys,109.77,11,Mark Mclain,Aledo,109.41,188.24,106.59,163.29,458.13,Single-ply,SBD,M
Boys,109.77,12,Ethan Maple,Springtown,102.69,174.63,97.52,176.9,449.06,Single-ply,SBD,M
Boys,109.77,13,Jett Reed,White Settlement Brewer,105.64,176.9,83.91,165.56,426.38,Single-ply,SBD,M
Boys,124.74,1,Dominic Hill,Fort Worth Boswell,122.52,299.37,179.17,247.21,725.75,Single-ply,SBD,M
Boys,124.74,2,Daniel Martinez,White Settlement Brewer,122.15,249.48,136.08,240.4,625.96,Single-ply,SBD,M
Boys,124.74,3,Garrett Tidwell,Azle,121.65,226.8,131.54,208.65,566.99,Single-ply,SBD,M
Boys,124.74,4,Glynn Evans,Azle,122.24,226.8,124.74,195.04,546.58,Single-ply,SBD,M
Boys,124.74,5,Ricky Chapa,White Settlement Brewer,119.52,210.92,106.59,204.12,521.63,Single-ply,SBD,M
Boys,124.74,6,Augustino Saladino,Fort Worth Chisholm Trail,124.1,195.04,120.2,192.78,508.02,Single-ply,SBD,M
Boys,124.74,7,Jordan Hernandez,Saginaw,110.54,188.24,113.4,181.44,483.08,Single-ply,SBD,M
Boys,124.74,8,Carter Bobo,Springtown,117.48,188.24,92.99,188.24,469.47,Single-ply,SBD,M
Boys,124.74,9,Spencer Shoff,Fort Worth Chisholm Trail,117.25,174.63,99.79,161.03,435.45,Single-ply,SBD,M
Boys,124.74,10,Kenny Hill,Fort Worth Chisholm Trail,115.62,170.1,79.38,174.63,424.11,Single-ply,SBD,M
Boys,124.74+,1,Corbin Bullington,Aledo,164.79,260.82,149.69,254.01,664.51,Single-ply,SBD,M
Boys,124.74+,2,Shawn Baker,Granbury,142.79,249.48,133.81,217.72,601.01,Single-ply,SBD,M
Boys,124.74+,3,Jesse Springfield,Springtown,127.64,226.8,122.47,226.8,576.06,Single-ply,SBD,M
Boys,124.74+,4,Jesse Loanis,Fort Worth Boswell,130.86,231.33,106.59,204.12,542.04,Single-ply,SBD,M
Boys,124.74+,5,Dusty Seely,White Settlement Brewer,126.33,213.19,124.74,190.51,528.44,Single-ply,SBD,M
Boys,124.74+,6,Jacob Lance,Azle,136.49,226.8,122.47,158.76,508.02,Single-ply,SBD,M
Boys,124.74+,DQ,Jordan Papke,Granbury,131,,,,,Single-ply,SBD,M
Boys,124.74+,DQ,Wes Harris,Aledo,129.27,,,,,Single-ply,SBD,M
