Division,WeightClassKg,Place,Name,Team,BodyweightKg,Best3SquatKg,Best3BenchKg,Best3DeadliftKg,TotalKg,Equipment,Event,Sex
Boys,55.79,1,Steven Pham,Sunnyvale,51.94,81.65,61.23,138.35,281.23,Single-ply,SBD,M
Boys,51.71,2,Jeremy Hibler,Justin Northwest,48.76,77.11,52.16,88.45,217.72,Single-ply,SBD,M
Boys,55.79,1,Nathan Duckworth,Sunnyvale,55.79,102.06,65.77,102.06,269.89,Single-ply,SBD,M
Boys,59.87,2,Jason St John,Garland Rowlett,56.02,79.38,56.7,120.2,256.28,Single-ply,SBD,M
Boys,55.79,3,Taylor Duffey,Justin Northwest,54.25,81.65,45.36,92.99,219.99,Single-ply,SBD,M
Boys,67.13,1,Matt Castillo,North Mesquite,60.1,149.69,90.72,172.37,412.77,Single-ply,SBD,M
Boys,67.13,2,Bryan Lacy,South Garland,60.1,147.42,79.38,136.08,362.87,Single-ply,SBD,M
Boys,59.87,3,Joseph Musgrove,Justin Northwest,58.06,115.67,83.91,145.15,344.73,Single-ply,SBD,M
Boys,59.87,4,Kelvin Okolo,Garland Rowlett,59.87,92.99,74.84,149.69,317.51,Single-ply,SBD,M
Boys,59.87,DQ,Josh Sims,South Garland,56.7,,70.31,136.08,,Single-ply,SBD,M
Boys,67.13,1,Trevor Bell,Sunnyvale,66,176.9,83.91,158.76,419.57,Single-ply,SBD,M
Boys,67.13,2,Ta'Varius Luke,North Mesquite,67.13,142.88,120.2,154.22,417.3,Single-ply,SBD,M
Boys,67.13,3,Blake Ibarra,Justin Northwest,65.32,142.88,99.79,158.76,401.43,Single-ply,SBD,M
Boys,67.13,4,Jeffery McCleod,Garland Rowlett,66,149.69,70.31,174.63,394.63,Single-ply,SBD,M
Boys,74.84,5,Garrett Ferguson,Sunnyvale,67.36,149.69,86.18,154.22,390.09,Single-ply,SBD,M
Boys,67.13,6,Abe Flores,Sunnyvale,64.41,113.4,83.91,161.03,358.34,Single-ply,SBD,M
Boys,67.13,7,DeAndre Jackson,North Mesquite,67.13,124.74,61.23,142.88,328.85,Single-ply,SBD,M
Boys,67.13,8,Nathan Coleman,North Garland,62.37,117.93,86.18,102.06,306.17,Single-ply,SBD,M
Boys,67.13,9,Lauren Davis,Justin Northwest,64,102.06,68.04,122.47,292.57,Single-ply,SBD,M
Boys,74.84,1,Christian Varela,North Mesquite,73.48,179.17,115.67,206.38,501.22,Single-ply,SBD,M
Boys,74.84,2,Jacob Free,Justin Northwest,72.8,165.56,102.06,172.37,439.98,Single-ply,SBD,M
Boys,74.84,3,Mohammed Shalabi,Sunnyvale,71.67,170.1,102.06,165.56,437.72,Single-ply,SBD,M
Boys,82.1,4,Dayron Holmes,South Garland,75.07,158.76,90.72,174.63,424.11,Single-ply,SBD,M
Boys,74.84,5,Johnson Dang,Garland Rowlett,73.94,163.29,83.91,161.03,408.23,Single-ply,SBD,M
Boys,82.1,6,Flozel Nipper,South Garland,75.07,142.88,90.72,158.76,392.36,Single-ply,SBD,M
Boys,74.84,7,Desmond Meridith,Garland Rowlett,72.8,120.2,90.72,161.03,371.95,Single-ply,SBD,M
Boys,74.84,8,Earon Craker,North Garland,69.63,120.2,70.31,158.76,349.27,Single-ply,SBD,M
Boys,74.84,9,Aaron Akens,North Mesquite,73.48,120.2,79.38,147.42,347,Single-ply,SBD,M
Boys,74.84,DQ,Cody Williams,North Mesquite,74.84,,,,,Single-ply,SBD,M
Boys,74.84,DQ,Des Black,South Garland,74.39,,90.72,158.76,,Single-ply,SBD,M
Boys,82.1,1,Abdul Khalaf,Sunnyvale,80.74,199.58,120.2,181.44,501.22,Single-ply,SBD,M
Boys,82.1,2,Nick Romo,North Mesquite,78.02,163.29,106.59,185.97,455.86,Single-ply,SBD,M
Boys,82.1,3,Jacob Parker,Justin Northwest,79.38,183.7,95.25,172.37,451.32,Single-ply,SBD,M
Boys,82.1,4,Daelyn Young,North Mesquite,81.65,170.1,74.84,190.51,435.45,Single-ply,SBD,M
Boys,82.1,5,Dondre Coleman,South Garland,79.83,154.22,111.13,167.83,433.18,Single-ply,SBD,M
Boys,82.1,6,Anthony Tanksley,North Mesquite,78.02,151.95,97.52,181.44,430.91,Single-ply,SBD,M
Boys,82.1,7,Tyrone Johnson,North Garland,79.15,151.95,95.25,181.44,428.64,Single-ply,SBD,M
Boys,82.1,8,Sebastian Reyes,Justin Northwest,81.42,154.22,81.65,170.1,405.97,Single-ply,SBD,M
Boys,82.1,9,Caleb Beard,Sunnyvale,78.47,142.88,88.45,154.22,385.55,Single-ply,SBD,M
Boys,82.1,10,Phillip Prather,North Mesquite,78.02,117.93,68.04,142.88,328.85,Single-ply,SBD,M
Boys,82.1,DQ,Dylan Stooksberry,South Garland,81.42,142.88,,161.03,,Single-ply,SBD,M
Boys,89.81,1,Cody Duffey,Justin Northwest,87.54,231.33,136.08,204.12,571.53,Single-ply,SBD,M
Boys,89.81,2,Joe Randle,North Mesquite,86.18,188.24,97.52,183.7,469.47,Single-ply,SBD,M
Boys,89.81,3,Nate Aponate,North Mesquite,84.37,124.74,79.38,127.01,331.12,Single-ply,SBD,M
Boys,89.81,4,Salvador Romero,North Garland,87.77,106.59,70.31,124.74,301.64,Single-ply,SBD,M
Boys,89.81,5,Scottie Calhoun,North Mesquite,86.18,115.67,70.31,113.4,299.37,Single-ply,SBD,M
Boys,99.79,1,Joey Clegg,Garland Rowlett,98.88,210.92,127.01,215.46,553.38,Single-ply,SBD,M
Boys,99.79,2,Dakota Mathers,South Garland,90.72,195.04,129.27,183.7,508.02,Single-ply,SBD,M
Boys,99.79,3,Jake Johnson #3,Garland Rowlett,95.48,181.44,131.54,190.51,503.49,Single-ply,SBD,M
Boys,99.79,4,Colton Gillespie,Garland Rowlett,94.8,158.76,92.99,195.04,446.79,Single-ply,SBD,M
Boys,99.79,5,Ken Louden,North Mesquite,90.72,149.69,97.52,181.44,428.64,Single-ply,SBD,M
Boys,99.79,6,Devon Williams,North Mesquite,99.34,163.29,83.91,156.49,403.7,Single-ply,SBD,M
Boys,99.79,7,Antonia Wilson,North Mesquite,99.79,154.22,90.72,158.76,403.7,Single-ply,SBD,M
Boys,99.79,8,Elijsh Banks,North Mesquite,90.72,142.88,102.06,136.08,381.02,Single-ply,SBD,M
Boys,99.79,9,Nathan Ortiz,North Garland,90.72,102.06,72.57,142.88,317.51,Single-ply,SBD,M
Boys,109.77,1,Jalon Scott,North Mesquite,101.6,213.19,120.2,199.58,532.97,Single-ply,SBD,M
Boys,109.77,2,Josh Cartwright,North Garland,105.46,183.7,115.67,215.46,514.83,Single-ply,SBD,M
Boys,109.77,3,Jose Villareal,North Garland,103.87,188.24,108.86,142.88,439.98,Single-ply,SBD,M
Boys,109.77,4,Michael Sheveland,Sunnyvale,105.01,154.22,99.79,167.83,421.84,Single-ply,SBD,M
Boys,109.77,5,Brandon Goebel,North Garland,101.83,158.76,97.52,158.76,415.04,Single-ply,SBD,M
Boys,109.77,6,Mikah Olsen,Garland Rowlett,105.46,145.15,90.72,176.9,412.77,Single-ply,SBD,M
Boys,109.77,7,Abenezer Yayine,North Garland,105.69,136.08,70.31,158.76,365.14,Single-ply,SBD,M
Boys,124.74,1,Travis Stubblefield,Justin Northwest,117.93,288.03,174.63,231.33,694,Single-ply,SBD,M
Boys,124.74,2,Joe Gonzales,Justin Northwest,114.53,272.16,138.35,240.4,650.91,Single-ply,SBD,M
Boys,124.74,3,Zak Mirza,Garland Rowlett,114.08,183.7,127.01,183.7,494.42,Single-ply,SBD,M
Boys,124.74,4,Preston Clark,Justin Northwest,117.93,174.63,108.86,165.56,449.06,Single-ply,SBD,M
Boys,124.74,4,Brandon Wiggleton,North Mesquite,114.31,170.1,124.74,179.17,474,Single-ply,SBD,M
Boys,124.74,5,Marc Miller,Garland Rowlett,121.79,197.31,92.99,179.17,469.47,Single-ply,SBD,M
Boys,124.74,6,Wade Cookston,Sunnyvale,119.52,158.76,106.59,172.37,437.72,Single-ply,SBD,M
Boys,124.74,7,Brice Chambers,North Mesquite,120.2,183.7,79.38,167.83,430.91,Single-ply,SBD,M
Boys,124.74,DQ,Alex Cortez,Sunnyvale,114.99,163.29,77.11,,,Single-ply,SBD,M
Boys,124.74+,1,Taylor Zalarius,South Garland,134.94,204.12,154.22,210.92,569.26,Single-ply,SBD,M
Boys,124.74+,2,Michael Nichols #3,North Mesquite,126.1,204.12,138.35,181.44,523.9,Single-ply,SBD,M
Boys,124.74+,3,Aldren Kamara,North Mesquite,145.15,219.99,113.4,188.24,521.63,Single-ply,SBD,M
Boys,124.74+,DQ,Josh Brown #12,South Garland,132.68,,,176.9,,Single-ply,SBD,M
Boys,124.74+,DQ,Taylor Lacy,South Garland,131.77,192.78,102.06,,,Single-ply,SBD,M
