Place,Name,BodyweightKg,BirthDate,Team,Squat1Kg,Squat2Kg,Squat3Kg,Best3SquatKg,Bench1Kg,Bench2Kg,Bench3Kg,Best3BenchKg,Deadlift1Kg,Deadlift2Kg,Deadlift3Kg,Best3DeadliftKg,TotalKg,Event,Equipment,Division,WeightClassKg,Sex
1,Celine Hein,56.4,2000-03-08,KSV Weißensee I,,,,,,,,,105,112.5,117.5,117.5,117.5,D,Single-ply,Open,57,F
1,Astrid Benitsch,60.9,1982-12-27,SG Motor Arnstadt II,,,,,,,,,127.5,135,-140,135,135,D,Single-ply,Open,63,F
1,Celine Alperstedt,63.3,2000-07-10,KSV Weißensee III,65,-70,-70,65,,,,,,,,,65,S,Single-ply,Open,72,F
1,Marie Hauschild,66.6,1995-06-13,KSV Weißensee II,,,,,,,,,115,125,130,130,130,D,Single-ply,Open,72,F
1,Amely Mendyka,83.4,2000-05-15,KSV Weißensee III,,,,,,,,,95,105,112.5,112.5,112.5,D,Single-ply,Open,84,F
1,Jonathan Bertuch,63.2,1995-12-28,SAV Erfurt e. V. II,,,,,97.5,102.5,107.5,107.5,,,,,107.5,B,Single-ply,Open,66,M
1,Lukas Heyse,63.3,1995-09-23,HSV Weimar e. V. II,,,,,,,,,160,170,180,180,180,D,Single-ply,Open,66,M
1,Toni Petzold,69.5,1988-09-19,SG Motor Arnstadt I,,,,,,,,,220,-240,-240,220,220,D,Single-ply,Open,74,M
1,Marvin Skopp,73.1,1999-06-09,KSV Weißensee III,,,,,95,100,-105,100,,,,,100,B,Single-ply,Open,74,M
2,Adrian Montag,76.4,1999-05-01,SAV Erfurt e. V. III,,,,,130,135,-140,135,,,,,135,B,Single-ply,Open,83,M
1,Timon Hofmann,76.6,1996-03-06,SG Motor Arnstadt I,185,-200,205,205,,,,,,,,,205,S,Single-ply,Open,83,M
2,Sascha Mothes,78.9,1985-09-26,USV Jena e. V. II,,,,,,,,,205,217.5,227.5,227.5,227.5,D,Single-ply,Open,83,M
1,Peter Schmidt,82.5,1974-09-25,HSV Weimar e. V. I,,,,,,,,,260,280,-300,280,280,D,Single-ply,Open,83,M
1,Sascha Stern,82.7,1979-04-04,SAV Erfurt e. V. I,,,,,170,177.5,-187.5,177.5,,,,,177.5,B,Single-ply,Open,83,M
4,Dirk Wetzel,83.1,1980-10-12,SG Motor Arnstadt II,165,-175,175,175,,,,,,,,,175,S,Single-ply,Open,93,M
3,Lutz Conrad,83.4,1984-01-15,Lobensteiner AV 93 II,,,,,,,,,180,195,210,210,210,D,Single-ply,Open,93,M
4,Andreas Trodler,83.5,1971-12-08,HSV Weimar e. V. II,,,,,140,145,-150,145,,,,,145,B,Single-ply,Open,93,M
5,Sebastian Vogel,84.1,1988-01-06,SAV Erfurt e. V. II,155,162.5,170,170,,,,,,,,,170,S,Single-ply,Open,93,M
1,Manuel Gonnermann,84.2,1993-06-20,SAV Erfurt e. V. I,220,235,250,250,,,,,,,,,250,S,Single-ply,Open,93,M
1,Maximilian Eisinger,85.2,1992-08-12,USV Jena e. V. I,,,,,,,,,225,250,270,270,270,D,Single-ply,Open,93,M
6,Johannes Becker,85.4,1995-10-26,HSV Weimar e. V. II,140,155,-165,155,,,,,,,,,155,S,Single-ply,Open,93,M
3,Hans Joachim Hoche,85.7,1964-01-26,Gothaer BFHV e. V. II,,,,,160,167.5,-172.5,167.5,,,,,167.5,B,Single-ply,Open,93,M
7,André Mendyka,86,1998-01-01,KSV Weißensee II,115,125,130,130,,,,,,,,,130,S,Single-ply,Open,93,M
G,Steffen Spörl,86.1,1974-07-05,Lobensteiner AV 93,230,247.5,257.5,257.5,100,,,100,170,,,170,527.5,SBD,Single-ply,Open,93,M
5,Christoph Koch,86.7,1995-07-12,SG Motor Arnstadt II,,,,,140,-150,-160,140,,,,,140,B,Single-ply,Open,93,M
G,Christopher Diete,87.6,1997-01-29,USV Jena e. V.,185,192.5,200,200,-145,-145,145,145,210,220,-225,220,565,SBD,Single-ply,Open,93,M
4,Dominik Tielsch,87.9,1990-10-10,KST Weimar e. V. I,,,,,,,,,160,170,175,175,175,D,Single-ply,Open,93,M
2,Dennis Dragewski,88.3,1987-01-14,SG Motor Arnstadt I,,,,,-195,-200,200,200,,,,,200,B,Single-ply,Open,93,M
3,Gustav Waidmann,90.3,1953-04-08,HSV Weimar e. V. I,210,225,235,235,,,,,,,,,235,S,Single-ply,Open,93,M
2,André Justus,90.4,1987-05-07,USV Jena e. V. I,230,240,-250,240,,,,,,,,,240,S,Single-ply,Open,93,M
2,Christoph Kastner,91.6,1992-05-31,SAV Erfurt e. V. III,,,,,,,,,190,205,217.5,217.5,217.5,D,Single-ply,Open,93,M
G,Alex Gunkel,92,1997-04-10,SG Motor Arnstadt,,,,,125,127.5,135,135,,,,,135,B,Single-ply,Open,93,M
1,Michael Hildebrandt,92.7,1984-08-26,Gothaer BFHV e. V. I,,,,,-260,260,272.5,272.5,,,,,272.5,B,Single-ply,Open,93,M
2,Aaron Weiß,93.5,1991-11-05,SAV Erfurt e. V. I,,,,,,,,,230,247.5,-267.5,247.5,247.5,D,Single-ply,Open,105,M
5,Uwe Szuggar,93.5,1968-08-24,KSV Weißensee II,,,,,125,127.5,-130,127.5,,,,,127.5,B,Single-ply,Open,105,M
1,Jakob Kallensee,94.1,1995-10-06,Gothaer BFHV e. V. II,170,185,195,195,,,,,,,,,195,S,Single-ply,Open,105,M
4,Pierre Liebeskind,96,1993-02-22,SAV Erfurt e. V. III,150,-160,160,160,,,,,,,,,160,S,Single-ply,Open,105,M
3,Carsten Hauschild,96.3,1960-04-24,KSV Weißensee I,165,175,185,185,,,,,,,,,185,S,Single-ply,Open,105,M
4,Marco Hirt,97.1,1980-07-30,KSV Weißensee I,,,,,150,-160,-165,150,,,,,150,B,Single-ply,Open,105,M
2,Mathias Kneißl,97.1,1978-05-20,USV Jena e. V. II,,,,,160,170,-180,170,,,,,170,B,Single-ply,Open,105,M
2,Andreas Slawik,98.2,1986-10-20,Lobensteiner AV 93 II,-190,190,-200,190,,,,,,,,,190,S,Single-ply,Open,105,M
3,Robert Möller,98.4,1987-09-03,Gothaer BFHV e. V. I,,,,,,,,,210,230,245,245,245,D,Single-ply,Open,105,M
3,Denny Ritschel,98.6,1988-03-14,HSV Weimar e. V. I,,,,,-170,170,-175,170,,,,,170,B,Single-ply,Open,105,M
1,Krystian Schmidt,98.7,1984-02-13,Lobensteiner AV 93 I,,,,,180,185,-190,185,,,,,185,B,Single-ply,Open,105,M
5,Tom Förster,102.9,1984-11-08,Gothaer BFHV e. V. II,,,,,,,,,190,205,220,220,220,D,Single-ply,Open,105,M
4,Kevin Blivier,103.2,1991-01-03,SAV Erfurt e. V. II,,,,,,,,,-230,245,-260,245,245,D,Single-ply,Open,105,M
1,Mathias Werner,104.6,1984-05-11,Lobensteiner AV 93 I,,,,,,,,,270,-290,-300,270,270,D,Single-ply,Open,105,M
1,Phillipp Baier,106.3,1989-06-27,USV Jena e. V. I,,,,,155,165,175,175,,,,,175,B,Single-ply,Open,120,M
2,Manuel Gruner,106.9,1995-03-13,Lobensteiner AV 93 II,,,,,140,145,-150,145,,,,,145,B,Single-ply,Open,120,M
1,Uwe Billig,107.6,1973-05-16,KST Weimar e. V. I,190,200,,200,100,112.5,,112.5,,,,,312.5,SB,Single-ply,Open,120,M
G,Tobias Zinserling,142.5,1978-02-08,Gothaer BFHV e. V.,350,-365,,350,,,,,,,,,350,S,Single-ply,Open,120+,M
